;
;
; BIND data file for hats.net. 
;
$TTL	604800
@		IN	SOA	hats.net. root.hats.net. (
		           4448		; Serial
			 604800		; Refresh
			  86400		; Retry
			2419200		; Expire
			 604800 )	; Negative Cache TTL
;
@		IN	NS	ns.hats.net.
@		IN	A	172.0.0.1
@		IN	AAAA	::1
ns		IN	A	195.3.5.1	
www		IN	A	195.3.5.15
@		IN	A	195.3.5.10
mail		IN	A	195.3.5.8
@		IN	MX	20	mail.hats.net.
mailqueue	IN	A	195.3.5.98	
@		IN	MX	30	mailqueue.hats.net.
sales		IN	A	195.3.5.56

; Defining shipping subdomain 
shipping.hats.net.	IN	NS	ns.shipping.hats.net.
; Here is the glue record
ns.shipping.hats.net.	IN	A	195.3.5.1

;
